{
    "options": {
        "args": ["--verbose"],
        "exclude": [".git*",".sass*","node_modules/",".DS_Store", "package.json", "Gruntfile.js"],
        "recursive": true
    },
    "stage": {
        "options": {
              "src": "./",
              "dest": "/home/apps/www/current/wp-content/themes/cima-theme",
              "host": "vm-cima@doejocloud.com"
          }
    },
    "stage_plugins": {
        "options": {
            "src": "../../plugins",
            "dest": "/home/apps/www/current/wp-content/",
            "host": "vm-cima@doejocloud.com"
        }
    },
    "stage_uploads": {
        "options": {
            "src": "../../uploads",
            "dest": "/home/apps/www/current/wp-content/",
            "host": "vm-cima@doejocloud.com"
        }
    }
}